{
  "type": "FeatureCollection",
  "generator": "overpass-ide",
  "copyright": "The data included in this document is from www.openstreetmap.org. The data is made available under ODbL.",
  "timestamp": "2020-12-22T15:40:03Z",
  "features": [
    {
      "type": "Feature",
      "properties": {
        "@id": "node/929941946",
        "amenity": "school"
      },
      "geometry": {
        "type": "Point",
        "coordinates": [
          50.191436,
          26.328366
        ]
      },
      "id": "node/929941946"
    },
    {
      "type": "Feature",
      "properties": {
        "@id": "node/929941947",
        "amenity": "school"
      },
      "geometry": {
        "type": "Point",
        "coordinates": [
          50.1916357,
          26.3283645
        ]
      },
      "id": "node/929941947"
    },
    {
      "type": "Feature",
      "properties": {
        "@id": "node/1305616948",
        "amenity": "school",
        "name": "Arab Open University"
      },
      "geometry": {
        "type": "Point",
        "coordinates": [
          50.0819964,
          26.4508034
        ]
      },
      "id": "node/1305616948"
    },
    {
      "type": "Feature",
      "properties": {
        "@id": "node/1330402063",
        "amenity": "school",
        "name": "Girls school"
      },
      "geometry": {
        "type": "Point",
        "coordinates": [
          50.0905393,
          26.4499788
        ]
      },
      "id": "node/1330402063"
    },
    {
      "type": "Feature",
      "properties": {
        "@id": "node/1700637243",
        "amenity": "school",
        "int_name": "IISD",
        "name": "Indian_Intl_School_Dammam"
      },
      "geometry": {
        "type": "Point",
        "coordinates": [
          50.1827712,
          26.3823798
        ]
      },
      "id": "node/1700637243"
    },
    {
      "type": "Feature",
      "properties": {
        "@id": "node/1768318556",
        "amenity": "school",
        "name": "Adult religious school"
      },
      "geometry": {
        "type": "Point",
        "coordinates": [
          50.1779717,
          26.2934687
        ]
      },
      "id": "node/1768318556"
    },
    {
      "type": "Feature",
      "properties": {
        "@id": "node/1787025468",
        "amenity": "school"
      },
      "geometry": {
        "type": "Point",
        "coordinates": [
          50.0886199,
          26.4532209
        ]
      },
      "id": "node/1787025468"
    },
    {
      "type": "Feature",
      "properties": {
        "@id": "node/1787025471",
        "amenity": "school"
      },
      "geometry": {
        "type": "Point",
        "coordinates": [
          50.0881105,
          26.456328
        ]
      },
      "id": "node/1787025471"
    },
    {
      "type": "Feature",
      "properties": {
        "@id": "node/2000729978",
        "amenity": "school",
        "name": "مجمع الخليل بن أحمد التعليمي بالربيعية"
      },
      "geometry": {
        "type": "Point",
        "coordinates": [
          50.0780363,
          26.5675454
        ]
      },
      "id": "node/2000729978"
    },
    {
      "type": "Feature",
      "properties": {
        "@id": "node/2000730472",
        "amenity": "school",
        "name": "مدرسة الربيعية الثانوية للبنات"
      },
      "geometry": {
        "type": "Point",
        "coordinates": [
          50.0769262,
          26.569017
        ]
      },
      "id": "node/2000730472"
    },
    {
      "type": "Feature",
      "properties": {
        "@id": "node/2000731235",
        "amenity": "school",
        "name": "مدرسة الربيعية المتوسطة للبنات"
      },
      "geometry": {
        "type": "Point",
        "coordinates": [
          50.0752969,
          26.5697273
        ]
      },
      "id": "node/2000731235"
    },
    {
      "type": "Feature",
      "properties": {
        "@id": "node/2382612418",
        "amenity": "school",
        "name": "مدرسة الشاطئ الابتدائية",
        "name:en": "Al-Shati Primary School"
      },
      "geometry": {
        "type": "Point",
        "coordinates": [
          50.0023878,
          26.5646001
        ]
      },
      "id": "node/2382612418"
    },
    {
      "type": "Feature",
      "properties": {
        "@id": "node/2382612419",
        "amenity": "school",
        "name": "مدرسة القطيف المتوسطة",
        "name:en": "Qatif Intermediate school"
      },
      "geometry": {
        "type": "Point",
        "coordinates": [
          50.0017655,
          26.564341
        ]
      },
      "id": "node/2382612419"
    },
    {
      "type": "Feature",
      "properties": {
        "@id": "node/2383781435",
        "addr:postcode": "31911",
        "amenity": "school",
        "name": "الكلية التقنية بالقطيف",
        "website": "www.qtc.gov.sa"
      },
      "geometry": {
        "type": "Point",
        "coordinates": [
          50.0133891,
          26.5501248
        ]
      },
      "id": "node/2383781435"
    },
    {
      "type": "Feature",
      "properties": {
        "@id": "node/4142432190",
        "amenity": "school",
        "name": "المدرسة السادسة عشر للبنات"
      },
      "geometry": {
        "type": "Point",
        "coordinates": [
          50.0321411,
          26.3959923
        ]
      },
      "id": "node/4142432190"
    },
    {
      "type": "Feature",
      "properties": {
        "@id": "node/4142452589",
        "amenity": "school",
        "name": "ثانوية القاسم بن محمد بن أبي بكر الثانوية",
        "opening_hours": "Su-Th 06:00-22:00"
      },
      "geometry": {
        "type": "Point",
        "coordinates": [
          50.0276971,
          26.395869
        ]
      },
      "id": "node/4142452589"
    },
    {
      "type": "Feature",
      "properties": {
        "@id": "node/4142452689",
        "amenity": "school",
        "name": "مدرسة عثمان بن عفان الابتدائية"
      },
      "geometry": {
        "type": "Point",
        "coordinates": [
          50.0283446,
          26.3947899
        ]
      },
      "id": "node/4142452689"
    },
    {
      "type": "Feature",
      "properties": {
        "@id": "node/4230205890",
        "amenity": "school",
        "name": "Energy Star - Neft energies training center"
      },
      "geometry": {
        "type": "Point",
        "coordinates": [
          50.1970598,
          26.3359459
        ]
      },
      "id": "node/4230205890"
    },
    {
      "type": "Feature",
      "properties": {
        "@id": "node/4245225989",
        "amenity": "school",
        "name": "عين جالوت المتوسطة",
        "opening_hours": "Su-Th 06:00-14:00"
      },
      "geometry": {
        "type": "Point",
        "coordinates": [
          50.0708267,
          26.4183201
        ]
      },
      "id": "node/4245225989"
    },
    {
      "type": "Feature",
      "properties": {
        "@id": "node/4271377491",
        "amenity": "school",
        "name": "أبي حنيفة الابتدائية"
      },
      "geometry": {
        "type": "Point",
        "coordinates": [
          50.0702528,
          26.4194627
        ]
      },
      "id": "node/4271377491"
    },
    {
      "type": "Feature",
      "properties": {
        "@id": "node/4275393399",
        "amenity": "school",
        "name": "Khobar Driving School"
      },
      "geometry": {
        "type": "Point",
        "coordinates": [
          50.1790539,
          26.3692504
        ]
      },
      "id": "node/4275393399"
    },
    {
      "type": "Feature",
      "properties": {
        "@id": "node/4278650801",
        "addr:street": "Omar Ibn Al Khatteb Street",
        "amenity": "school",
        "name": "مدرسة المشكاة الأهلية"
      },
      "geometry": {
        "type": "Point",
        "coordinates": [
          50.0684369,
          26.3918212
        ]
      },
      "id": "node/4278650801"
    },
    {
      "type": "Feature",
      "properties": {
        "@id": "node/4278657311",
        "addr:housenumber": "8119596",
        "addr:postcode": "2108",
        "addr:street": "Abu Baker Al Siddiq Street",
        "amenity": "school",
        "name": "مدرسة الفلاح الأهلية",
        "phone": "0567199058"
      },
      "geometry": {
        "type": "Point",
        "coordinates": [
          50.0594291,
          26.3800234
        ]
      },
      "id": "node/4278657311"
    },
    {
      "type": "Feature",
      "properties": {
        "@id": "node/4287967698",
        "amenity": "school",
        "name": "مدرسة ابن جبير"
      },
      "geometry": {
        "type": "Point",
        "coordinates": [
          50.1876828,
          26.3013325
        ]
      },
      "id": "node/4287967698"
    },
    {
      "type": "Feature",
      "properties": {
        "@id": "node/4304424994",
        "amenity": "school",
        "name": "نور الهدى الأهلية - بنات - روضه - إبتدائي"
      },
      "geometry": {
        "type": "Point",
        "coordinates": [
          50.0312632,
          26.4015041
        ]
      },
      "id": "node/4304424994"
    },
    {
      "type": "Feature",
      "properties": {
        "@id": "node/4304426593",
        "amenity": "school",
        "name": "مدرسة رواد المدارات - المتوسطة"
      },
      "geometry": {
        "type": "Point",
        "coordinates": [
          50.03086,
          26.4004921
        ]
      },
      "id": "node/4304426593"
    },
    {
      "type": "Feature",
      "properties": {
        "@id": "node/4304461190",
        "amenity": "school",
        "name": "مدرسة رواد المدارات - الإبتدائية"
      },
      "geometry": {
        "type": "Point",
        "coordinates": [
          50.0210578,
          26.3966998
        ]
      },
      "id": "node/4304461190"
    },
    {
      "type": "Feature",
      "properties": {
        "@id": "node/4314691591",
        "amenity": "school",
        "name": "Dallah Sinaya Driving School Dammam"
      },
      "geometry": {
        "type": "Point",
        "coordinates": [
          50.029733,
          26.44144
        ]
      },
      "id": "node/4314691591"
    },
    {
      "type": "Feature",
      "properties": {
        "@id": "node/4453660891",
        "amenity": "school"
      },
      "geometry": {
        "type": "Point",
        "coordinates": [
          50.1874677,
          26.2851995
        ]
      },
      "id": "node/4453660891"
    },
    {
      "type": "Feature",
      "properties": {
        "@id": "node/4540643591",
        "amenity": "school",
        "name": "الكلية التقنية بالدمام",
        "name:ar": "الكلية التقنية بالدمام",
        "name:en": "Dammam College of Technology"
      },
      "geometry": {
        "type": "Point",
        "coordinates": [
          50.1188794,
          26.3862191
        ]
      },
      "id": "node/4540643591"
    },
    {
      "type": "Feature",
      "properties": {
        "@id": "node/4548954891",
        "amenity": "school",
        "name": "School for Ajis and Hussam",
        "name:ar": "School for Ajis and Hussam"
      },
      "geometry": {
        "type": "Point",
        "coordinates": [
          50.0587932,
          26.4155663
        ]
      },
      "id": "node/4548954891"
    },
    {
      "type": "Feature",
      "properties": {
        "@id": "node/4551112392",
        "amenity": "school",
        "name": "Girls School"
      },
      "geometry": {
        "type": "Point",
        "coordinates": [
          50.1218528,
          26.4078677
        ]
      },
      "id": "node/4551112392"
    },
    {
      "type": "Feature",
      "properties": {
        "@id": "node/4556745089",
        "amenity": "school",
        "name": "مدرسة عثمان بن عفان",
        "name:ar": "مدرسة عثمان بن عفان"
      },
      "geometry": {
        "type": "Point",
        "coordinates": [
          50.029212,
          26.3947093
        ]
      },
      "id": "node/4556745089"
    },
    {
      "type": "Feature",
      "properties": {
        "@id": "node/4683848997",
        "amenity": "school",
        "name:en": "Al Majd International School"
      },
      "geometry": {
        "type": "Point",
        "coordinates": [
          50.1752771,
          26.360812
        ]
      },
      "id": "node/4683848997"
    },
    {
      "type": "Feature",
      "properties": {
        "@id": "node/4906007825",
        "amenity": "school",
        "name": "New World International School",
        "website": "www.newworldschool.com.sa/"
      },
      "geometry": {
        "type": "Point",
        "coordinates": [
          50.1902437,
          26.3455799
        ]
      },
      "id": "node/4906007825"
    },
    {
      "type": "Feature",
      "properties": {
        "@id": "node/5798411955",
        "addr:street": "Omar Ibn Al Khatteb Street",
        "amenity": "school",
        "name": "الثانوية الثلاثون",
        "name:en": "Thirtieth (30) Secondary school"
      },
      "geometry": {
        "type": "Point",
        "coordinates": [
          50.0680833,
          26.3953762
        ]
      },
      "id": "node/5798411955"
    },
    {
      "type": "Feature",
      "properties": {
        "@id": "node/6404005791",
        "amenity": "school",
        "name:en": "International Philippines School Alkhobar"
      },
      "geometry": {
        "type": "Point",
        "coordinates": [
          50.2138576,
          26.2683245
        ]
      },
      "id": "node/6404005791"
    },
    {
      "type": "Feature",
      "properties": {
        "@id": "node/6984112085",
        "amenity": "school",
        "name:en": "TAFE"
      },
      "geometry": {
        "type": "Point",
        "coordinates": [
          50.0366845,
          26.4658168
        ]
      },
      "id": "node/6984112085"
    },
    {
      "type": "Feature",
      "properties": {
        "@id": "node/7903649924",
        "amenity": "school"
      },
      "geometry": {
        "type": "Point",
        "coordinates": [
          50.0399698,
          26.4820128
        ]
      },
      "id": "node/7903649924"
    },
    {
      "type": "Feature",
      "properties": {
        "@id": "node/7909866481",
        "amenity": "school",
        "name": "British International School Of Al Khobar المدرسة البريطانية الدولية الخبر"
      },
      "geometry": {
        "type": "Point",
        "coordinates": [
          50.2167368,
          26.3739598
        ]
      },
      "id": "node/7909866481"
    }
  ]
}
