{
  "type": "FeatureCollection",
  "generator": "overpass-ide",
  "copyright": "The data included in this document is from www.openstreetmap.org. The data is made available under ODbL.",
  "timestamp": "2020-11-19T11:18:02Z",
  "features": [
    {
      "type": "Feature",
      "properties": {
        "@id": "node/4100708397",
        "amenity": "drinking_water"
      },
      "geometry": {
        "type": "Point",
        "coordinates": [
          51.5630179,
          25.2309021
        ]
      },
      "id": "node/4100708397"
    },
    {
      "type": "Feature",
      "properties": {
        "@id": "node/4100708593",
        "amenity": "drinking_water"
      },
      "geometry": {
        "type": "Point",
        "coordinates": [
          51.5612107,
          25.2303131
        ]
      },
      "id": "node/4100708593"
    },
    {
      "type": "Feature",
      "properties": {
        "@id": "node/5339811725",
        "amenity": "drinking_water"
      },
      "geometry": {
        "type": "Point",
        "coordinates": [
          51.5328409,
          25.3169262
        ]
      },
      "id": "node/5339811725"
    },
    {
      "type": "Feature",
      "properties": {
        "@id": "node/7062737587",
        "amenity": "drinking_water"
      },
      "geometry": {
        "type": "Point",
        "coordinates": [
          51.5414239,
          25.2946258
        ]
      },
      "id": "node/7062737587"
    },
    {
      "type": "Feature",
      "properties": {
        "@id": "node/7062740486",
        "amenity": "drinking_water"
      },
      "geometry": {
        "type": "Point",
        "coordinates": [
          51.5428132,
          25.2982615
        ]
      },
      "id": "node/7062740486"
    },
    {
      "type": "Feature",
      "properties": {
        "@id": "node/7062740487",
        "amenity": "drinking_water"
      },
      "geometry": {
        "type": "Point",
        "coordinates": [
          51.542099,
          25.2985631
        ]
      },
      "id": "node/7062740487"
    },
    {
      "type": "Feature",
      "properties": {
        "@id": "node/7062740488",
        "amenity": "drinking_water"
      },
      "geometry": {
        "type": "Point",
        "coordinates": [
          51.5436177,
          25.297224
        ]
      },
      "id": "node/7062740488"
    },
    {
      "type": "Feature",
      "properties": {
        "@id": "node/7062740489",
        "amenity": "drinking_water"
      },
      "geometry": {
        "type": "Point",
        "coordinates": [
          51.5425625,
          25.2948649
        ]
      },
      "id": "node/7062740489"
    },
    {
      "type": "Feature",
      "properties": {
        "@id": "node/7062740490",
        "amenity": "drinking_water"
      },
      "geometry": {
        "type": "Point",
        "coordinates": [
          51.5408602,
          25.2946982
        ]
      },
      "id": "node/7062740490"
    },
    {
      "type": "Feature",
      "properties": {
        "@id": "node/7062747085",
        "amenity": "drinking_water"
      },
      "geometry": {
        "type": "Point",
        "coordinates": [
          51.5436273,
          25.2960539
        ]
      },
      "id": "node/7062747085"
    },
    {
      "type": "Feature",
      "properties": {
        "@id": "node/7746622449",
        "access": "yes",
        "amenity": "drinking_water"
      },
      "geometry": {
        "type": "Point",
        "coordinates": [
          51.4975596,
          25.654059
        ]
      },
      "id": "node/7746622449"
    },
    {
      "type": "Feature",
      "properties": {
        "@id": "node/7856211530",
        "amenity": "drinking_water"
      },
      "geometry": {
        "type": "Point",
        "coordinates": [
          51.4469107,
          25.5452822
        ]
      },
      "id": "node/7856211530"
    }
  ]
}